Name, Class Count, Abstract Class Count, Ca, Ce, A, I, D, V
android.app,0,0,1,0,0,0,1,1
android.content,0,0,1,0,0,0,1,1
android.content.pm,0,0,1,0,0,0,1,1
android.net,0,0,1,0,0,0,1,1
android.os,0,0,1,0,0,0,1,1
android.util,0,0,1,0,0,0,1,1
com.dropbox.client2,31,3,2,21,0.1,0.91,0.01,1
com.dropbox.client2.android,6,1,0,12,0.17,1,0.17,1
com.dropbox.client2.exception,11,0,2,5,0,0.71,0.29,1
com.dropbox.client2.jsonextract,13,2,1,3,0.15,0.75,0.1,1
com.dropbox.client2.session,21,3,2,24,0.14,0.92,0.07,1
java.io,0,0,7,0,0,0,1,1
java.lang,0,0,9,0,0,0,1,1
java.lang.reflect,0,0,1,0,0,0,1,1
java.math,0,0,2,0,0,0,1,1
java.net,0,0,3,0,0,0,1,1
java.nio.channels,0,0,1,0,0,0,1,1
java.security,0,0,4,0,0,0,1,1
java.security.cert,0,0,2,0,0,0,1,1
java.text,0,0,1,0,0,0,1,1
java.util,0,0,9,0,0,0,1,1
java.util.concurrent,0,0,2,0,0,0,1,1
java.util.regex,0,0,1,0,0,0,1,1
java.util.zip,0,0,2,0,0,0,1,1
javax.net.ssl,0,0,2,0,0,0,1,1
org.apache.http,0,0,3,0,0,0,1,1
org.apache.http.client,0,0,2,0,0,0,1,1
org.apache.http.client.entity,0,0,1,0,0,0,1,1
org.apache.http.client.methods,0,0,2,0,0,0,1,1
org.apache.http.conn,0,0,1,0,0,0,1,1
org.apache.http.conn.params,0,0,1,0,0,0,1,1
org.apache.http.conn.routing,0,0,1,0,0,0,1,1
org.apache.http.conn.scheme,0,0,1,0,0,0,1,1
org.apache.http.conn.ssl,0,0,1,0,0,0,1,1
org.apache.http.entity,0,0,2,0,0,0,1,1
org.apache.http.impl,0,0,1,0,0,0,1,1
org.apache.http.impl.client,0,0,1,0,0,0,1,1
org.apache.http.impl.conn.tsccm,0,0,1,0,0,0,1,1
org.apache.http.message,0,0,2,0,0,0,1,1
org.apache.http.params,0,0,2,0,0,0,1,1
org.apache.http.protocol,0,0,1,0,0,0,1,1
org.gradle.cli,24,6,1,3,0.25,0.75,0,1
org.gradle.wrapper,14,1,0,12,0.07,1,0.07,1
org.json.simple,6,2,3,4,0.33,0.57,0.1,1
org.json.simple.parser,6,2,2,4,0.33,0.67,0,1

